…
## Now **climaemet** is tidy…

From `v1.0.0` onward, **climaemet** provides its results in [tibble
format](https://tibble.tidyverse.org/). Also, the functions try to guess
the correct format of the fields (i.e. something as a Date/Hour now is
an hour, numbers are parsed as double, etc.).

``` r
library(climaemet)

# See a tibble in action

aemet_last_obs("9434")
#> # A tibble: 23 × 25
#>    idema   lon fint                 prec   alt  vmax    vv    dv   lat  dmax
#>    <chr> <dbl> <dttm>              <dbl> <dbl> <dbl> <dbl> <dbl> <dbl> <dbl>
#>  1 9434  -1.00 2023-08-03 16:00:00     0   249  13.3   6.5   336  41.7   325
#>  2 9434  -1.00 2023-08-03 17:00:00     0   249  12     7.3   332  41.7   320
#>  3 9434  -1.00 2023-08-03 18:00:00     0   249  12.3   6.6   339  41.7   343
#>  4 9434  -1.00 2023-08-03 19:00:00     0   249  12     6.7   330  41.7   333
#>  5 9434  -1.00 2023-08-03 20:00:00     0   249  11.3   5.4   329  41.7   328
#>  6 9434  -1.00 2023-08-03 21:00:00     0   249  13.8   8.3   323  41.7   328
#>  7 9434  -1.00 2023-08-03 22:00:00     0   249  11.8   6.3   322  41.7   313
#>  8 9434  -1.00 2023-08-03 23:00:00     0   249  10.9   8.3   310  41.7   315
#>  9 9434  -1.00 2023-08-04 00:00:00     0   249  10.9   7.2   307  41.7   308
#> 10 9434  -1.00 2023-08-04 01:00:00     0   249  10.8   5.9   312  41.7   313
#> # ℹ 13 more rows
#> # ℹ 15 more variables: ubi <chr>, pres <dbl>, hr <dbl>, stdvv <dbl>, ts <dbl>,
#> #   pres_nmar <dbl>, tamin <dbl>, ta <dbl>, tamax <dbl>, tpr <dbl>,
#> #   stddv <dbl>, inso <dbl>, tss5cm <dbl>, pacutp <dbl>, tss20cm <dbl>
```
…
