…
db_beach <- read_csv2("https://www.aemet.es/documentos/es/eltiempo/prediccion/playas/Playas_codigos.csv",
  show_col_types = FALSE,
  locale = locale(encoding = "ISO-8859-1"),
  trim_ws = TRUE
)
#> ℹ Using "','" as decimal and "'.'" as grouping mark. Use `read_delim()` for more control.
```

``` r

db_beach
#> # A tibble: 591 × 8
#>    ID_PLAYA NOMBRE_PLAYA               ID_PROVINCIA NOMBRE_PROVINCIA ID_MUNICIPIO NOMBRE_MUNICIPIO LATITUD        LONGITUD      
#>    <chr>    <chr>                      <chr>        <chr>            <chr>        <chr>            <chr>          <chr>         
#>  1 0301101  Raco de l'Albir            03           Alacant/Alicante 03011        l'Alfàs del Pi   "38º 34' 31\"" "-00º 03' 52\…
#>  2 0301401  Sant Joan / San Juan       03           Alacant/Alicante 03014        Alicante/Alacant "38º 22' 48\"" "-00º 24' 32\…
#>  3 0301408  El Postiguet               03           Alacant/Alicante 03014        Alicante/Alacant "38º 20' 46\"" "-00º 28' 38\…
#>  4 0301410  Saladar                    03           Alacant/Alicante 03014        Alicante/Alacant "38º 17' 02\"" "-00º 31' 08\…
#>  5 0301808  La Roda                    03           Alacant/Alicante 03018        Altea            "38º 36' 29\"" "-00º 02' 16\…
#>  6 0301809  Cap Blanch                 03           Alacant/Alicante 03018        Altea            "38º 35' 36\"" "-00º 03' 10\…
#>  7 0303102  Llevant / Playa de Levante 03           Alacant/Alicante 03031        Benidorm         "38º 32' 12\"" "-00º 07' 05\…
#>  8 0303104  Ponent / Playa de Poniente 03           Alacant/Alicante 03031        Benidorm         "38º 32' 14\"" "-00º 08' 55\…
#>  9 0304105  Cala Fustera               03           Alacant/Alicante 03041        Benissa          "38º 39' 53\"" "0º 05' 16\"" 
#> 10 0304704  La Fossa                   03           Alacant/Alicante 03047        Calp             "38º 38' 46\"" "0º 04' 24\"" 
#> # ℹ 581 more rows
```
…
