…
## See also

[`aemet_forecast_beaches()`](https://ropenspain.github.io/climaemet/reference/aemet_forecast_beaches.md).

AEMET locations:
[`aemet_alert_zones()`](https://ropenspain.github.io/climaemet/reference/aemet_alert_zones.md),
[`aemet_stations()`](https://ropenspain.github.io/climaemet/reference/aemet_stations.md)

## Examples

``` r
library(dplyr)
beaches <- aemet_beaches()
beaches
#> # A tibble: 591 × 10
#>    ID_PLAYA NOMBRE_PLAYA              ID_PROVINCIA NOMBRE_PROVINCIA ID_MUNICIPIO
#>    <chr>    <chr>                     <chr>        <chr>            <chr>       
#>  1 0301101  Raco de l'Albir           03           Alacant/Alicante 03011       
#>  2 0301401  Sant Joan / San Juan      03           Alacant/Alicante 03014       
#>  3 0301408  El Postiguet              03           Alacant/Alicante 03014       
#>  4 0301410  Saladar                   03           Alacant/Alicante 03014       
#>  5 0301808  La Roda                   03           Alacant/Alicante 03018       
#>  6 0301809  Cap Blanch                03           Alacant/Alicante 03018       
#>  7 0303102  Llevant / Playa de Levan… 03           Alacant/Alicante 03031       
#>  8 0303104  Ponent / Playa de Ponien… 03           Alacant/Alicante 03031       
#>  9 0304105  Cala Fustera              03           Alacant/Alicante 03041       
#> 10 0304704  La Fossa                  03           Alacant/Alicante 03047       
#> # ℹ 581 more rows
#> # ℹ 5 more variables: NOMBRE_MUNICIPIO <chr>, LATITUD <chr>, LONGITUD <chr>,
#> #   longitud <dbl>, latitud <dbl>
…
