…
## Examples

``` r
library(dplyr)
#> 
#> Attaching package: ‘dplyr’
#> The following objects are masked from ‘package:stats’:
#> 
#>     filter, lag
#> The following objects are masked from ‘package:base’:
#> 
#>     intersect, setdiff, setequal, union
alert_zones <- aemet_alert_zones()
alert_zones
#> # A tibble: 233 × 6
#>    COD_Z  NOM_Z                           COD_PROV NOM_PROV COD_CCAA NOM_CCAA 
#>    <chr>  <chr>                           <chr>    <chr>    <chr>    <chr>    
#>  1 610401 Valle del Almanzora y Los Vélez 6104     Almería  61       Andalucía
#>  2 610402 Nacimiento y Campo de Tabernas  6104     Almería  61       Andalucía
#>  3 610403 Poniente y Almería Capital      6104     Almería  61       Andalucía
#>  4 610404 Levante almeriense              6104     Almería  61       Andalucía
#>  5 611101 Grazalema                       6111     Cádiz    61       Andalucía
#>  6 611102 Campiña gaditana                6111     Cádiz    61       Andalucía
#>  7 611103 Litoral gaditano                6111     Cádiz    61       Andalucía
#>  8 611104 Estrecho                        6111     Cádiz    61       Andalucía
#>  9 611401 Sierra y Pedroches              6114     Córdoba  61       Andalucía
#> 10 611402 Campiña cordobesa               6114     Córdoba  61       Andalucía
#> # ℹ 223 more rows
…
