Client tool for AEMET API — get_data_aemet • climaemet
…
    See also

    Some examples on how to use these functions on
vignette("extending-climaemet").

    Examples

# Run this example only if AEMET_API_KEY is detected

url <- "/api/valores/climatologicos/inventarioestaciones/todasestaciones"

get_data_aemet(url)
#> # A tibble: 947 × 7
#>    latitud provincia     altitud indicativo nombre             indsinop longitud
#>    <chr>   <chr>         <chr>   <chr>      <chr>              <chr>    <chr>   
#>  1 394924N ILLES BALEARS 490     B013X      ESCORCA, LLUC      "08304"  025309E 
#>  2 394744N ILLES BALEARS 5       B051A      SÓLLER, PUERTO     "08316"  024129E 
#>  3 394121N ILLES BALEARS 60      B087X      BANYALBUFAR        ""       023046E 
#>  4 393446N ILLES BALEARS 52      B103B      ANDRATX - SANT ELM ""       022208E 
#>  5 393305N BALEARES      50      B158X      CALVIÀ, ES CAPDEL… ""       022759E 
#>  6 393315N ILLES BALEARS 3       B228       PALMA, PUERTO      "08301"  023731E 
#>  7 393832N ILLES BALEARS 95      B236C      PALMA, UNIVERSITAT ""       023838E 
#>  8 394406N ILLES BALEARS 1030    B248       SIERRA DE ALFABIA… "08303"  024247E 
#>  9 393621N BALEARES      47      B275E      SON BONET, AEROPU… "08302"  024224E 
#> 10 393339N BALEARES      5       B278       PALMA DE MALLORCA… "08306"  024412E 
#> # ℹ 937 more rows
…
