Dealing with spatial data • climaemet
…
nrow(clim_data_utm)
#> [1] 743

nrow(clim_data_clean_nodup)
#> [1] 737

clim_data_clean_nodup
#> Simple feature collection with 737 features and 2 fields
#> Geometry type: POINT
#> Dimension:     XY
#> Bounding box:  xmin: -13501.2 ymin: 3903695 xmax: 1126597 ymax: 4858794
#> Projected CRS: ETRS89 / UTM zone 30N
#> # A tibble: 737 × 3
#>    fecha       tmin           geometry
#>    <date>     <dbl>        <POINT [m]>
#>  1 2021-01-08   4.2 (672170.6 4229216)
#>  2 2021-01-08   0.4 (974469.6 4626714)
#>  3 2021-01-08   5.9 (342907.5 4117910)
#>  4 2021-01-08  -7.6 (246984.3 4576961)
#>  5 2021-01-08   0.1 (740805.4 4456820)
#>  6 2021-01-08  -9.7 (433670.8 4553921)
#>  7 2021-01-08   1.3 (691017.1 4333929)
#>  8 2021-01-08   0.6 (179243.6 4231942)
#>  9 2021-01-08  -4.9 (227110.4 4495959)
#> 10 2021-01-08   3.8   (714492 4319880)
#> # ℹ 727 more rows
…
According to Montero, Fernández-Avilés, and Mateu (2015), kriging aims to predict the value of a random function, Z(s)Z(s), at one or more non-observed points (or blocks) from a collection of data observed at nn points (or blocks in the case of block prediction) of a domain DD, and provides the best linear unbiased predictor (BLUP) of the regionalized variable under study at such non-observed points or blocks

There are different kinds of kriging depend on the characteristics of the spatial process: simple, ordinary or universal kriging (external drift kriging), kriging in a local neighborhood, point kriging or kriging of block mean values and conditional (Gaussian or indicator) simulation equivalents for all kriging varieties.

In this work we deal with ordinary kriging, the most widely-used kriging method. According to Wackernagel (1995) it serves to estimate a value at a point of a region for which a variogram is known, using data in the neighborhood of the estimation location.

In this study, we perform ordinary kriging (OK) following Hijmans and Ghosh (2023).

# Need to pass the input as data frame
clim_data_clean_nodup_df <- vect(clim_data_clean_nodup) |>
  as_tibble(geom = "XY")

clim_data_clean_nodup_df
#> # A tibble: 737 × 4
#>    fecha       tmin       x        y
#>    <date>     <dbl>   <dbl>    <dbl>
#>  1 2021-01-08   4.2 672171. 4229216.
#>  2 2021-01-08   0.4 974470. 4626714.
#>  3 2021-01-08   5.9 342908. 4117910.
#>  4 2021-01-08  -7.6 246984. 4576961.
#>  5 2021-01-08   0.1 740805. 4456820.
#>  6 2021-01-08  -9.7 433671. 4553921.
#>  7 2021-01-08   1.3 691017. 4333929.
#>  8 2021-01-08   0.6 179244. 4231942.
#>  9 2021-01-08  -4.9 227110. 4495959.
#> 10 2021-01-08   3.8 714492. 4319880.
#> # ℹ 727 more rows
…
