Dealing with spatial data • climaemet
…
nrow(clim_data_utm)
#> [1] 743

nrow(clim_data_clean_nodup)
#> [1] 737

clim_data_clean_nodup
#> Simple feature collection with 737 features and 2 fields
#> Geometry type: POINT
#> Dimension:     XY
#> Bounding box:  xmin: -13501.2 ymin: 3903695 xmax: 1126597 ymax: 4858794
#> Projected CRS: ETRS89 / UTM zone 30N
#> # A tibble: 737 × 3
#>    fecha       tmin           geometry
#>    <date>     <dbl>        <POINT [m]>
#>  1 2021-01-08   0.4 (974469.6 4626714)
#>  2 2021-01-08   5.9 (342907.5 4117910)
#>  3 2021-01-08  -2.2 (498174.6 4429021)
#>  4 2021-01-08  -5.5 (613363.5 4576400)
#>  5 2021-01-08   3.8 (714443.9 4319879)
#>  6 2021-01-08  -5.7   (279182 4654420)
#>  7 2021-01-08  -6   (367250.7 4650525)
#>  8 2021-01-08   4.2 (750113.1 4427116)
#>  9 2021-01-08  -9.5 (414744.8 4516276)
#> 10 2021-01-08  -8.3 (405392.2 4760574)
#> # ℹ 727 more rows
…
In this work we deal with ordinary kriging, the most widely-used
kriging method. According to Wackernagel (1995) it serves to estimate a
value at a point of a region for which a variogram is known, using data
in the neighborhood of the estimation location.

In this study, we perform ordinary kriging (OK) following Hijmans and Ghosh (2023).

# Need to pass the input as data frame
clim_data_clean_nodup_df <- vect(clim_data_clean_nodup) %>%
  as_tibble(geom = "XY")

clim_data_clean_nodup_df
#> # A tibble: 737 × 4
#>    fecha       tmin       x        y
#>    <date>     <dbl>   <dbl>    <dbl>
#>  1 2021-01-08   0.4 974470. 4626714.
#>  2 2021-01-08   5.9 342908. 4117910.
#>  3 2021-01-08  -2.2 498175. 4429021.
#>  4 2021-01-08  -5.5 613364. 4576400.
#>  5 2021-01-08   3.8 714444. 4319879.
#>  6 2021-01-08  -5.7 279182. 4654420.
#>  7 2021-01-08  -6   367251. 4650525.
#>  8 2021-01-08   4.2 750113. 4427116.
#>  9 2021-01-08  -9.5 414745. 4516276.
#> 10 2021-01-08  -8.3 405392. 4760574.
#> # ℹ 727 more rows
…
